<?xml version="1.0" encoding="utf-8"?>
<!-- Generator: Adobe Illustrator 21.1.0, SVG Export Plug-In . SVG Version: 6.00 Build 0)  -->
<svg version="1.1" id="Layer_1" xmlns="http://www.w3.org/2000/svg" xmlns:xlink="http://www.w3.org/1999/xlink" x="0px" y="0px"
	 viewBox="0 0 980 200" style="enable-background:new 0 0 980 200;" xml:space="preserve">
<style type="text/css">
	.st0{fill:#902147;}
	.st1{fill:#202945;}
</style>
<g>
	<g>
		<path class="st0" d="M126.7,34.8l-6.9,7.5c-1.4-0.8-2.8-1.6-4.3-2.3c-16-7.7-34-8.8-50.9-2.9C47.9,43,34.4,55,26.6,71.1
			c-11.5,23.9-7.7,52.3,9.3,72.2l11-11C34.6,117,31.9,95.8,40.6,77.8c5.9-12.3,16.3-21.5,29.2-26c12.9-4.5,26.7-3.7,39,2.2
			c0.1,0,0.1,0.1,0.2,0.1l-7.2,7.8C82,54,59,62.7,49.6,82.2c-7.6,15.7-4.4,34.5,7.8,46.8l3.5,3.5l-25.2,25.1l-3.5-3.5
			C9.4,131,3.5,95.9,17.6,66.7c8.9-18.4,24.4-32.3,43.7-39c19.3-6.7,40.1-5.5,58.5,3.4C122.2,32.2,124.5,33.5,126.7,34.8z"/>
		<path class="st0" d="M155.5,133.3c-8.9,18.4-24.4,32.3-43.7,39c-8.3,2.9-16.8,4.3-25.3,4.3c-11.4,0-22.7-2.6-33.2-7.7
			c-2.6-1.3-5.1-2.6-7.6-4.2l6.9-7.5c1.6,1,3.3,1.9,5.1,2.7c16,7.7,34.1,8.8,50.8,2.9c16.8-5.9,30.3-17.9,38-33.9
			c11.5-23.9,7.7-52.3-9.3-72.2l-11,11c12.4,15.2,15.1,36.5,6.4,54.5c-12.3,25.3-42.8,36-68.2,23.8c-0.3-0.2-0.7-0.3-1-0.5l7.1-7.7
			c20,8.6,43.5-0.1,53-19.9c7.6-15.7,4.4-34.5-7.8-46.8l-3.5-3.6l25.2-25l3.5,3.5C163.7,69,169.6,104.1,155.5,133.3z"/>
		<path class="st0" d="M87.7,125.1c-13.8,0-25-11.2-25-25s11.2-25,25-25c9.5,0,18.4,5.6,22.5,14.2l-9,4.3c-2.5-5.2-7.8-8.5-13.5-8.5
			c-8.3,0-15,6.7-15,15c0,8.3,6.7,15,15,15c5.7,0,11-3.3,13.5-8.5l9,4.3C106.1,119.5,97.2,125.1,87.7,125.1z"/>
	</g>
	<g>
		<g>
			<path class="st1" d="M224.2,70c8.2,0,14.2,2.6,19.7,7.6c0.7,0.7,0.7,1.6,0.1,2.3l-5,5.1c-0.6,0.7-1.4,0.7-2,0
				c-3.4-3-8-4.8-12.5-4.8c-10.4,0-18.2,8.7-18.2,19c0,10.2,7.8,18.8,18.2,18.8c4.9,0,9-1.9,12.5-4.6c0.7-0.6,1.5-0.5,2,0l5.1,5.2
				c0.7,0.6,0.5,1.6-0.1,2.2c-5.5,5.4-12.5,7.9-19.8,7.9c-16.3,0-29.4-13-29.4-29.2C194.8,83.1,207.9,70,224.2,70z"/>
			<path class="st1" d="M251.4,72.3c0-0.8,0.7-1.5,1.5-1.5h23.3c9.8,0,17.8,7.8,17.8,17.5c0,7.5-5,13.6-12.1,16.5l11.2,20.7
				c0.6,1.1,0,2.4-1.4,2.4h-8.6c-0.7,0-1.1-0.4-1.3-0.7L271,105.5h-9v20.8c0,0.8-0.7,1.5-1.5,1.5h-7.5c-0.9,0-1.5-0.7-1.5-1.5V72.3z
				 M275.3,96.8c4.3,0,8.1-3.7,8.1-8.3c0-4.3-3.7-7.9-8.1-7.9h-13.3v16.2H275.3z"/>
			<path class="st1" d="M305.6,72.3c0-0.8,0.7-1.5,1.5-1.5h33.2c0.9,0,1.5,0.7,1.5,1.5V79c0,0.8-0.7,1.5-1.5,1.5h-24.1v13.4h20.1
				c0.8,0,1.5,0.7,1.5,1.5v6.8c0,0.9-0.7,1.5-1.5,1.5h-20.1V118h24.1c0.9,0,1.5,0.7,1.5,1.5v6.7c0,0.8-0.7,1.5-1.5,1.5h-33.2
				c-0.9,0-1.5-0.7-1.5-1.5V72.3z"/>
			<path class="st1" d="M353.5,72.3c0-0.8,0.7-1.5,1.5-1.5h19.3c15.7,0,28.6,12.8,28.6,28.4c0,15.8-12.9,28.6-28.6,28.6H355
				c-0.8,0-1.5-0.7-1.5-1.5V72.3z M373.3,117.9c10.6,0,18.3-8,18.3-18.7c0-10.6-7.7-18.6-18.3-18.6h-9.3v37.2H373.3z"/>
			<path class="st1" d="M413.7,72.3c0-0.8,0.7-1.5,1.5-1.5h33.2c0.9,0,1.5,0.7,1.5,1.5V79c0,0.8-0.7,1.5-1.5,1.5h-24.1v13.4h20.1
				c0.8,0,1.5,0.7,1.5,1.5v6.8c0,0.9-0.7,1.5-1.5,1.5h-20.1V118h24.1c0.9,0,1.5,0.7,1.5,1.5v6.7c0,0.8-0.7,1.5-1.5,1.5h-33.2
				c-0.9,0-1.5-0.7-1.5-1.5V72.3z"/>
			<path class="st1" d="M461.6,71.4c0-0.8,0.7-1.5,1.5-1.5h2l33.9,36h0.1V72.3c0-0.8,0.7-1.5,1.5-1.5h7.5c0.8,0,1.5,0.7,1.5,1.5
				v54.8c0,0.8-0.7,1.5-1.5,1.5h-2l-34-37.4h-0.1v35c0,0.8-0.7,1.5-1.5,1.5h-7.4c-0.8,0-1.5-0.7-1.5-1.5V71.4z"/>
			<path class="st1" d="M532.2,80.6h-12.5c-0.9,0-1.5-0.7-1.5-1.5v-6.7c0-0.8,0.7-1.5,1.5-1.5h35.6c0.9,0,1.5,0.7,1.5,1.5V79
				c0,0.8-0.7,1.5-1.5,1.5h-12.5v45.7c0,0.8-0.7,1.5-1.5,1.5h-7.6c-0.8,0-1.5-0.7-1.5-1.5V80.6z"/>
			<path class="st1" d="M565.3,72.3c0-0.8,0.7-1.5,1.5-1.5h7.6c0.8,0,1.5,0.7,1.5,1.5v53.9c0,0.8-0.7,1.5-1.5,1.5h-7.6
				c-0.8,0-1.5-0.7-1.5-1.5V72.3z"/>
			<path class="st1" d="M583.4,125.7l25.3-54.8c0.2-0.5,0.7-0.9,1.4-0.9h0.8c0.8,0,1.1,0.4,1.4,0.9l25.1,54.8
				c0.5,1.1-0.2,2.1-1.4,2.1H629c-1.2,0-1.8-0.5-2.4-1.6l-4-8.8h-24.4l-4,8.8c-0.3,0.8-1.1,1.6-2.4,1.6h-7.1
				C583.6,127.8,582.9,126.7,583.4,125.7z M618.6,108.3l-8.1-17.9h-0.2l-8,17.9H618.6z"/>
			<path class="st1" d="M644.8,72.3c0-0.8,0.7-1.5,1.5-1.5h7.5c0.8,0,1.5,0.7,1.5,1.5V118h20.8c0.9,0,1.5,0.7,1.5,1.5v6.7
				c0,0.8-0.7,1.5-1.5,1.5h-29.8c-0.9,0-1.5-0.7-1.5-1.5V72.3z"/>
			<path class="st1" d="M714.2,70c8.3,0,14.5,2.8,19.8,7.6c0.4,0.4,0.5,1.1,0.1,1.5l-1.3,1.4c-0.5,0.5-0.9,0.4-1.4-0.1
				c-4.6-4.2-10.5-6.7-17.2-6.7c-14.3,0-25.4,11.6-25.4,25.7c0,14,11.2,25.6,25.4,25.6c7,0,12.3-2.8,17.2-6.8c0.5-0.4,1-0.4,1.3-0.2
				l1.4,1.4c0.4,0.3,0.4,1,0,1.4c-5.5,5.4-12.6,7.9-19.9,7.9c-16.3,0-29.5-12.9-29.5-29.2C684.8,83.1,698,70,714.2,70z"/>
			<path class="st1" d="M744.1,71.8c0-0.6,0.5-1.1,1.1-1.1h1.7c0.7,0,1.1,0.5,1.1,1.1v25h36.6v-25c0-0.6,0.5-1.1,1.1-1.1h1.7
				c0.7,0,1.1,0.5,1.1,1.1v54.9c0,0.6-0.4,1.1-1.1,1.1h-1.7c-0.6,0-1.1-0.5-1.1-1.1v-26.5h-36.6v26.5c0,0.6-0.4,1.1-1.1,1.1h-1.7
				c-0.6,0-1.1-0.5-1.1-1.1V71.8z"/>
			<path class="st1" d="M803.9,71.8c0-0.6,0.5-1.1,1.1-1.1h32.7c0.6,0,1.1,0.5,1.1,1.1v1.4c0,0.6-0.5,1.1-1.1,1.1h-29.8v22.5h25.8
				c0.6,0,1.1,0.5,1.1,1.1v1.4c0,0.6-0.5,1.1-1.1,1.1h-25.8v24.1h29.8c0.6,0,1.1,0.5,1.1,1.1v1.3c0,0.6-0.5,1.1-1.1,1.1H805
				c-0.6,0-1.1-0.5-1.1-1.1V71.8z"/>
			<path class="st1" d="M877.8,70c8.3,0,14.5,2.8,19.8,7.6c0.4,0.4,0.5,1.1,0.1,1.5l-1.3,1.4c-0.5,0.5-0.9,0.4-1.4-0.1
				c-4.6-4.2-10.5-6.7-17.2-6.7c-14.3,0-25.4,11.6-25.4,25.7c0,14,11.2,25.6,25.4,25.6c7,0,12.3-2.8,17.2-6.8c0.5-0.4,1-0.4,1.3-0.2
				l1.4,1.4c0.4,0.3,0.4,1,0,1.4c-5.5,5.4-12.6,7.9-19.9,7.9c-16.3,0-29.5-12.9-29.5-29.2C848.3,83.1,861.5,70,877.8,70z"/>
			<path class="st1" d="M910.9,72c0-0.7,0.5-1.2,1.2-1.2h1.5c0.7,0,1.2,0.5,1.2,1.2v25.2l27.7-25.8c0.7-0.6,0.9-0.6,1.6-0.6h2.3
				c0.9,0,1,0.9,0.5,1.4l-28.3,26.3l29.2,27.9c0.5,0.4,0.3,1.4-0.7,1.4h-2.6c-0.7,0-1.1-0.2-1.8-0.8l-27.9-27v26.8
				c0,0.8-0.6,1.1-1.2,1.1H912c-0.7,0-1.1-0.4-1.1-1.1V72z"/>
		</g>
		<g>
			<path class="st1" d="M962.2,113.1c4.3,0,7.8,3.5,7.8,7.8c0,4.3-3.5,7.7-7.8,7.7c-4.3,0-7.7-3.5-7.7-7.7
				C954.5,116.6,958,113.1,962.2,113.1z M962.2,127.3c3.6,0,6.4-2.9,6.4-6.4c0-3.6-2.9-6.4-6.4-6.4c-3.6,0-6.4,2.9-6.4,6.4
				C955.8,124.4,958.7,127.3,962.2,127.3z M959.5,117.3c0-0.2,0.2-0.4,0.4-0.4h3.1c1.3,0,2.7,0.8,2.7,2.4c0,1.6-1.1,2.2-1.7,2.4
				c0.4,0.8,0.9,1.7,1.3,2.5c0.2,0.3-0.1,0.6-0.4,0.6h-0.7c-0.2,0-0.3-0.2-0.4-0.3l-1.2-2.7h-1.6v2.6c0,0.2-0.2,0.4-0.4,0.4H960
				c-0.2,0-0.4-0.2-0.4-0.4V117.3z M963,120.6c0.8,0,1.3-0.6,1.3-1.2c0-0.7-0.5-1.2-1.3-1.2h-2.1v2.5H963z"/>
		</g>
	</g>
</g>
</svg>
